<?xml version="1.0" encoding="UTF-8"?>
<svg xmlns="http://www.w3.org/2000/svg" xmlns:xlink="http://www.w3.org/1999/xlink" width="75pt" height="74.999997pt" viewBox="0 0 75 74.999997" version="1.2">
<defs>
<clipPath id="clip1">
  <path d="M 3.414062 3.414062 L 71.664062 3.414062 L 71.664062 71.664062 L 3.414062 71.664062 Z M 3.414062 3.414062 "/>
</clipPath>
</defs>
<g id="surface1">
<g clip-path="url(#clip1)" clip-rule="nonzero">
<path style=" stroke:none;fill-rule:nonzero;fill:rgb(19.999695%,50.979614%,64.309692%);fill-opacity:1;" d="M 37.539062 3.414062 C 18.722656 3.414062 3.414062 18.722656 3.414062 37.539062 C 3.414062 56.359375 18.722656 71.664062 37.539062 71.664062 C 56.355469 71.664062 71.664062 56.359375 71.664062 37.539062 C 71.664062 18.722656 56.355469 3.414062 37.539062 3.414062 Z M 27.15625 52.378906 L 21.21875 52.378906 L 21.21875 30.121094 L 27.15625 30.121094 Z M 24.1875 25.671875 C 22.546875 25.671875 21.21875 24.34375 21.21875 22.703125 C 21.21875 21.0625 22.546875 19.738281 24.1875 19.738281 C 25.828125 19.738281 27.15625 21.0625 27.15625 22.703125 C 27.15625 24.34375 25.828125 25.671875 24.1875 25.671875 Z M 55.34375 52.378906 L 49.410156 52.378906 L 49.410156 41.25 C 49.410156 38.394531 47.074219 36.058594 44.21875 36.058594 C 41.359375 36.058594 39.023438 38.394531 39.023438 41.25 L 39.023438 52.378906 L 33.089844 52.378906 L 33.089844 30.121094 L 39.023438 30.121094 L 39.023438 32.816406 C 40.757812 31.152344 43.109375 30.121094 45.699219 30.121094 C 51.027344 30.121094 55.34375 34.441406 55.34375 39.765625 Z M 55.34375 52.378906 "/>
</g>
</g>
</svg>
