<?xml version="1.0" encoding="UTF-8"?>
<svg xmlns="http://www.w3.org/2000/svg" xmlns:xlink="http://www.w3.org/1999/xlink" width="75pt" height="74.999997pt" viewBox="0 0 75 74.999997" version="1.2">
<defs>
<clipPath id="clip1">
  <path d="M 2.828125 2.828125 L 71.828125 2.828125 L 71.828125 71.828125 L 2.828125 71.828125 Z M 2.828125 2.828125 "/>
</clipPath>
</defs>
<g id="surface1">
<g clip-path="url(#clip1)" clip-rule="nonzero">
<path style=" stroke:none;fill-rule:nonzero;fill:rgb(19.999695%,50.979614%,64.309692%);fill-opacity:1;" d="M 37.328125 2.828125 C 18.273438 2.828125 2.828125 18.273438 2.828125 37.328125 C 2.828125 51.945312 11.921875 64.425781 24.753906 69.453125 C 24.453125 66.722656 24.179688 62.535156 24.875 59.558594 C 25.503906 56.867188 28.917969 42.410156 28.917969 42.410156 C 28.917969 42.410156 27.886719 40.34375 27.886719 37.289062 C 27.886719 32.488281 30.667969 28.910156 34.128906 28.910156 C 37.070312 28.910156 38.492188 31.125 38.492188 33.769531 C 38.492188 36.730469 36.609375 41.15625 35.636719 45.253906 C 34.820312 48.691406 37.359375 51.488281 40.746094 51.488281 C 46.875 51.488281 51.589844 45.023438 51.589844 35.691406 C 51.589844 27.433594 45.65625 21.65625 37.179688 21.65625 C 27.363281 21.65625 21.601562 29.019531 21.601562 36.628906 C 21.601562 39.59375 22.742188 42.773438 24.167969 44.503906 C 24.449219 44.84375 24.488281 45.144531 24.40625 45.492188 C 24.144531 46.582031 23.566406 48.925781 23.449219 49.40625 C 23.300781 50.035156 22.949219 50.171875 22.296875 49.863281 C 17.988281 47.855469 15.292969 41.554688 15.292969 36.5 C 15.292969 25.617188 23.203125 15.617188 38.09375 15.617188 C 50.058594 15.617188 59.363281 24.148438 59.363281 35.546875 C 59.363281 47.4375 51.863281 57.003906 41.460938 57.003906 C 37.964844 57.003906 34.675781 55.1875 33.550781 53.042969 C 33.550781 53.042969 31.820312 59.628906 31.402344 61.25 C 30.625 64.242188 28.523438 68.003906 27.113281 70.292969 C 30.339844 71.285156 33.769531 71.828125 37.328125 71.828125 C 56.378906 71.828125 71.828125 56.378906 71.828125 37.328125 C 71.828125 18.277344 56.382812 2.828125 37.328125 2.828125 Z M 37.328125 2.828125 "/>
</g>
</g>
</svg>
